Data manipulation use dplyr package - 钟宇飞的博客
…
逻辑值筛选

注意| ,&,!等逻辑判断符号

library(nycflights13)
filter(flights, !(arr_delay > 120 | dep_delay > 120))
## # A tibble: 316,050 x 19
##     year month   day dep_time sched_dep_time dep_delay arr_time sched_arr_time
##    <int> <int> <int>    <int>          <int>     <dbl>    <int>          <int>
##  1  2013     1     1      517            515         2      830            819
##  2  2013     1     1      533            529         4      850            830
##  3  2013     1     1      542            540         2      923            850
##  4  2013     1     1      544            545        -1     1004           1022
##  5  2013     1     1      554            600        -6      812            837
##  6  2013     1     1      554            558        -4      740            728
##  7  2013     1     1      555            600        -5      913            854
##  8  2013     1     1      557            600        -3      709            723
##  9  2013     1     1      557            600        -3      838            846
## 10  2013     1     1      558            600        -2      753            745
## # ... with 316,040 more rows, and 11 more variables: arr_delay <dbl>,
## #   carrier <chr>, flight <int>, tailnum <chr>, origin <chr>, dest <chr>,
## #   air_time <dbl>, distance <dbl>, hour <dbl>, minute <dbl>, time_hour <dttm>
filter(flights, arr_delay <= 120, dep_delay <= 120)
## # A tibble: 316,050 x 19
##     year month   day dep_time sched_dep_time dep_delay arr_time sched_arr_time
##    <int> <int> <int>    <int>          <int>     <dbl>    <int>          <int>
##  1  2013     1     1      517            515         2      830            819
##  2  2013     1     1      533            529         4      850            830
##  3  2013     1     1      542            540         2      923            850
##  4  2013     1     1      544            545        -1     1004           1022
##  5  2013     1     1      554            600        -6      812            837
##  6  2013     1     1      554            558        -4      740            728
##  7  2013     1     1      555            600        -5      913            854
##  8  2013     1     1      557            600        -3      709            723
##  9  2013     1     1      557            600        -3      838            846
## 10  2013     1     1      558            600        -2      753            745
## # ... with 316,040 more rows, and 11 more variables: arr_delay <dbl>,
## #   carrier <chr>, flight <int>, tailnum <chr>, origin <chr>, dest <chr>,
## #   air_time <dbl>, distance <dbl>, hour <dbl>, minute <dbl>, time_hour <dttm>

select

当数据集较大列数较多时，我们可能并不需要那么多列，可以通过select()筛选：

基础

通过指定列名称筛选，顺便指定列之间顺序

starwars %>% 
  select(name,height,mass,hair_color,skin_color,eye_color)
## # A tibble: 87 x 6
##    name               height  mass hair_color    skin_color  eye_color
##    <chr>               <int> <dbl> <chr>         <chr>       <chr>    
##  1 Luke Skywalker        172    77 blond         fair        blue     
##  2 C-3PO                 167    75 <NA>          gold        yellow   
##  3 R2-D2                  96    32 <NA>          white, blue red      
##  4 Darth Vader           202   136 none          white       yellow   
##  5 Leia Organa           150    49 brown         light       brown    
##  6 Owen Lars             178   120 brown, grey   light       blue     
##  7 Beru Whitesun lars    165    75 brown         light       blue     
##  8 R5-D4                  97    32 <NA>          white, red  red      
##  9 Biggs Darklighter     183    84 black         light       brown    
## 10 Obi-Wan Kenobi        182    77 auburn, white fair        blue-gray
## # ... with 77 more rows

列索引

通过列名或数字向量索引

starwars %>% 
  select(name : eye_color)
## # A tibble: 87 x 6
##    name               height  mass hair_color    skin_color  eye_color
##    <chr>               <int> <dbl> <chr>         <chr>       <chr>    
##  1 Luke Skywalker        172    77 blond         fair        blue     
##  2 C-3PO                 167    75 <NA>          gold        yellow   
##  3 R2-D2                  96    32 <NA>          white, blue red      
##  4 Darth Vader           202   136 none          white       yellow   
##  5 Leia Organa           150    49 brown         light       brown    
##  6 Owen Lars             178   120 brown, grey   light       blue     
##  7 Beru Whitesun lars    165    75 brown         light       blue     
##  8 R5-D4                  97    32 <NA>          white, red  red      
##  9 Biggs Darklighter     183    84 black         light       brown    
## 10 Obi-Wan Kenobi        182    77 auburn, white fair        blue-gray
## # ... with 77 more rows
#same above
starwars %>% 
  select(1:6)
## # A tibble: 87 x 6
##    name               height  mass hair_color    skin_color  eye_color
##    <chr>               <int> <dbl> <chr>         <chr>       <chr>    
##  1 Luke Skywalker        172    77 blond         fair        blue     
##  2 C-3PO                 167    75 <NA>          gold        yellow   
##  3 R2-D2                  96    32 <NA>          white, blue red      
##  4 Darth Vader           202   136 none          white       yellow   
##  5 Leia Organa           150    49 brown         light       brown    
##  6 Owen Lars             178   120 brown, grey   light       blue     
##  7 Beru Whitesun lars    165    75 brown         light       blue     
##  8 R5-D4                  97    32 <NA>          white, red  red      
##  9 Biggs Darklighter     183    84 black         light       brown    
## 10 Obi-Wan Kenobi        182    77 auburn, white fair        blue-gray
## # ... with 77 more rows
# starwars %>% 
#   select(c(1,2,4,5,7))

rename

列重命名使用rename()

starwars %>% rename(home_world = homeworld)
## # A tibble: 87 x 14
##    name    height  mass hair_color  skin_color eye_color birth_year sex   gender
##    <chr>    <int> <dbl> <chr>       <chr>      <chr>          <dbl> <chr> <chr> 
##  1 Luke S~    172    77 blond       fair       blue            19   male  mascu~
##  2 C-3PO      167    75 <NA>        gold       yellow         112   none  mascu~
##  3 R2-D2       96    32 <NA>        white, bl~ red             33   none  mascu~
##  4 Darth ~    202   136 none        white      yellow          41.9 male  mascu~
##  5 Leia O~    150    49 brown       light      brown           19   fema~ femin~
##  6 Owen L~    178   120 brown, grey light      blue            52   male  mascu~
##  7 Beru W~    165    75 brown       light      blue            47   fema~ femin~
##  8 R5-D4       97    32 <NA>        white, red red             NA   none  mascu~
##  9 Biggs ~    183    84 black       light      brown           24   male  mascu~
## 10 Obi-Wa~    182    77 auburn, wh~ fair       blue-gray       57   male  mascu~
## # ... with 77 more rows, and 5 more variables: home_world <chr>, species <chr>,
## #   films <list>, vehicles <list>, starships <list>

relocate

更改列顺序，与使用select()指定列顺序相似

# sex:homeworld列在height列前面
starwars %>% relocate(sex:homeworld, .before = height)
## # A tibble: 87 x 14
##    name     sex    gender homeworld height  mass hair_color skin_color eye_color
##    <chr>    <chr>  <chr>  <chr>      <int> <dbl> <chr>      <chr>      <chr>    
##  1 Luke Sk~ male   mascu~ Tatooine     172    77 blond      fair       blue     
##  2 C-3PO    none   mascu~ Tatooine     167    75 <NA>       gold       yellow   
##  3 R2-D2    none   mascu~ Naboo         96    32 <NA>       white, bl~ red      
##  4 Darth V~ male   mascu~ Tatooine     202   136 none       white      yellow   
##  5 Leia Or~ female femin~ Alderaan     150    49 brown      light      brown    
##  6 Owen La~ male   mascu~ Tatooine     178   120 brown, gr~ light      blue     
##  7 Beru Wh~ female femin~ Tatooine     165    75 brown      light      blue     
##  8 R5-D4    none   mascu~ Tatooine      97    32 <NA>       white, red red      
##  9 Biggs D~ male   mascu~ Tatooine     183    84 black      light      brown    
## 10 Obi-Wan~ male   mascu~ Stewjon      182    77 auburn, w~ fair       blue-gray
## # ... with 77 more rows, and 5 more variables: birth_year <dbl>, species <chr>,
## #   films <list>, vehicles <list>, starships <list>

mutate

mutate()在现有数据框基础上新增列

starwars %>% 
  mutate(bmi = mass / ((height / 100)  ^ 2)) %>% 
  select(name:mass,bmi)
## # A tibble: 87 x 4
##    name               height  mass   bmi
##    <chr>               <int> <dbl> <dbl>
##  1 Luke Skywalker        172    77  26.0
##  2 C-3PO                 167    75  26.9
##  3 R2-D2                  96    32  34.7
##  4 Darth Vader           202   136  33.3
##  5 Leia Organa           150    49  21.8
##  6 Owen Lars             178   120  37.9
##  7 Beru Whitesun lars    165    75  27.5
##  8 R5-D4                  97    32  34.0
##  9 Biggs Darklighter     183    84  25.1
## 10 Obi-Wan Kenobi        182    77  23.2
## # ... with 77 more rows

在新列基础上新增列

starwars %>% 
  mutate(bmi = mass / ((height / 100)  ^ 2),newbmi = bmi *2) %>% 
  select(name:mass,bmi,newbmi)
## # A tibble: 87 x 5
##    name               height  mass   bmi newbmi
##    <chr>               <int> <dbl> <dbl>  <dbl>
##  1 Luke Skywalker        172    77  26.0   52.1
##  2 C-3PO                 167    75  26.9   53.8
##  3 R2-D2                  96    32  34.7   69.4
##  4 Darth Vader           202   136  33.3   66.7
##  5 Leia Organa           150    49  21.8   43.6
##  6 Owen Lars             178   120  37.9   75.7
##  7 Beru Whitesun lars    165    75  27.5   55.1
##  8 R5-D4                  97    32  34.0   68.0
##  9 Biggs Darklighter     183    84  25.1   50.2
## 10 Obi-Wan Kenobi        182    77  23.2   46.5
## # ... with 77 more rows

arrange

单列排序默认升序，通过desc()降序排列

starwars %>% 
  arrange(desc(mass))
## # A tibble: 87 x 14
##    name    height  mass hair_color  skin_color eye_color birth_year sex   gender
##    <chr>    <int> <dbl> <chr>       <chr>      <chr>          <dbl> <chr> <chr> 
##  1 Jabba ~    175  1358 <NA>        green-tan~ orange         600   herm~ mascu~
##  2 Grievo~    216   159 none        brown, wh~ green, y~       NA   male  mascu~
##  3 IG-88      200   140 none        metal      red             15   none  mascu~
##  4 Darth ~    202   136 none        white      yellow          41.9 male  mascu~
##  5 Tarfful    234   136 brown       brown      blue            NA   male  mascu~
##  6 Owen L~    178   120 brown, grey light      blue            52   male  mascu~
##  7 Bossk      190   113 none        green      red             53   male  mascu~
##  8 Chewba~    228   112 brown       unknown    blue           200   male  mascu~
##  9 Jek To~    180   110 brown       fair       blue            NA   male  mascu~
## 10 Dexter~    198   102 none        brown      yellow          NA   male  mascu~
## # ... with 77 more rows, and 5 more variables: homeworld <chr>, species <chr>,
## #   films <list>, vehicles <list>, starships <list>

多列排序

starwars %>% 
  arrange(height,desc(mass))
## # A tibble: 87 x 14
##    name     height  mass hair_color skin_color eye_color birth_year sex   gender
##    <chr>     <int> <dbl> <chr>      <chr>      <chr>          <dbl> <chr> <chr> 
##  1 Yoda         66    17 white      green      brown            896 male  mascu~
##  2 Ratts T~     79    15 none       grey, blue unknown           NA male  mascu~
##  3 Wicket ~     88    20 brown      brown      brown              8 male  mascu~
##  4 Dud Bolt     94    45 none       blue, grey yellow            NA male  mascu~
##  5 R2-D2        96    32 <NA>       white, bl~ red               33 none  mascu~
##  6 R4-P17       96    NA none       silver, r~ red, blue         NA none  femin~
##  7 R5-D4        97    32 <NA>       white, red red               NA none  mascu~
##  8 Sebulba     112    40 none       grey, red  orange            NA male  mascu~
##  9 Gasgano     122    NA none       white, bl~ black             NA male  mascu~
## 10 Watto       137    NA black      blue, grey yellow            NA male  mascu~
## # ... with 77 more rows, and 5 more variables: homeworld <chr>, species <chr>,
## #   films <list>, vehicles <list>, starships <list>

summarise

按照分组聚合汇总

starwars %>%
  group_by(species) %>%
  summarise(
    n = n(),
    mass = mean(mass, na.rm = TRUE)
  )
## # A tibble: 38 x 3
##    species       n  mass
##    <chr>     <int> <dbl>
##  1 Aleena        1  15  
##  2 Besalisk      1 102  
##  3 Cerean        1  82  
##  4 Chagrian      1 NaN  
##  5 Clawdite      1  55  
##  6 Droid         6  69.8
##  7 Dug           1  40  
##  8 Ewok          1  20  
##  9 Geonosian     1  80  
## 10 Gungan        3  74  
## # ... with 28 more rows
…
left_join(),full_join,inner_join()等动词关联两个表。详情请查看：vignette("two-table")

left_join()实现类似Excel中VLOOKUP函数功能或数据库中left join功能。

基础用法

left_join(),right_join(),full_join(),inner_join()，第一个以左表为主，第二个右表为主，第三个全连接，第四个内连接(只返回两表中都有的记录)，和数据库中连接方式一致。

library("nycflights13")
# Drop unimportant variables so it's easier to understand the join results.
flights2 <- flights %>% select(year:day, hour, origin, dest, tailnum, carrier)

flights2 %>% 
  left_join(airlines)
## # A tibble: 336,776 x 9
##     year month   day  hour origin dest  tailnum carrier name                    
##    <int> <int> <int> <dbl> <chr>  <chr> <chr>   <chr>   <chr>                   
##  1  2013     1     1     5 EWR    IAH   N14228  UA      United Air Lines Inc.   
##  2  2013     1     1     5 LGA    IAH   N24211  UA      United Air Lines Inc.   
##  3  2013     1     1     5 JFK    MIA   N619AA  AA      American Airlines Inc.  
##  4  2013     1     1     5 JFK    BQN   N804JB  B6      JetBlue Airways         
##  5  2013     1     1     6 LGA    ATL   N668DN  DL      Delta Air Lines Inc.    
##  6  2013     1     1     5 EWR    ORD   N39463  UA      United Air Lines Inc.   
##  7  2013     1     1     6 EWR    FLL   N516JB  B6      JetBlue Airways         
##  8  2013     1     1     6 LGA    IAD   N829AS  EV      ExpressJet Airlines Inc.
##  9  2013     1     1     6 JFK    MCO   N593JB  B6      JetBlue Airways         
## 10  2013     1     1     6 LGA    ORD   N3ALAA  AA      American Airlines Inc.  
## # ... with 336,766 more rows

指定关联列，类似数据库中on =  column

flights2 %>% left_join(planes, by = "tailnum")
## # A tibble: 336,776 x 16
##    year.x month   day  hour origin dest  tailnum carrier year.y type            
##     <int> <int> <int> <dbl> <chr>  <chr> <chr>   <chr>    <int> <chr>           
##  1   2013     1     1     5 EWR    IAH   N14228  UA        1999 Fixed wing mult~
##  2   2013     1     1     5 LGA    IAH   N24211  UA        1998 Fixed wing mult~
##  3   2013     1     1     5 JFK    MIA   N619AA  AA        1990 Fixed wing mult~
##  4   2013     1     1     5 JFK    BQN   N804JB  B6        2012 Fixed wing mult~
##  5   2013     1     1     6 LGA    ATL   N668DN  DL        1991 Fixed wing mult~
##  6   2013     1     1     5 EWR    ORD   N39463  UA        2012 Fixed wing mult~
##  7   2013     1     1     6 EWR    FLL   N516JB  B6        2000 Fixed wing mult~
##  8   2013     1     1     6 LGA    IAD   N829AS  EV        1998 Fixed wing mult~
##  9   2013     1     1     6 JFK    MCO   N593JB  B6        2004 Fixed wing mult~
## 10   2013     1     1     6 LGA    ORD   N3ALAA  AA          NA <NA>            
## # ... with 336,766 more rows, and 6 more variables: manufacturer <chr>,
## #   model <chr>, engines <int>, seats <int>, speed <int>, engine <chr>

不同名称列关联

#出发机场和目的机场信息
flights2 %>% left_join(airports, by = c("dest" = "faa"))
## # A tibble: 336,776 x 15
##     year month   day  hour origin dest  tailnum carrier name     lat   lon   alt
##    <int> <int> <int> <dbl> <chr>  <chr> <chr>   <chr>   <chr>  <dbl> <dbl> <dbl>
##  1  2013     1     1     5 EWR    IAH   N14228  UA      Georg~  30.0 -95.3    97
##  2  2013     1     1     5 LGA    IAH   N24211  UA      Georg~  30.0 -95.3    97
##  3  2013     1     1     5 JFK    MIA   N619AA  AA      Miami~  25.8 -80.3     8
##  4  2013     1     1     5 JFK    BQN   N804JB  B6      <NA>    NA    NA      NA
##  5  2013     1     1     6 LGA    ATL   N668DN  DL      Harts~  33.6 -84.4  1026
##  6  2013     1     1     5 EWR    ORD   N39463  UA      Chica~  42.0 -87.9   668
##  7  2013     1     1     6 EWR    FLL   N516JB  B6      Fort ~  26.1 -80.2     9
##  8  2013     1     1     6 LGA    IAD   N829AS  EV      Washi~  38.9 -77.5   313
##  9  2013     1     1     6 JFK    MCO   N593JB  B6      Orlan~  28.4 -81.3    96
## 10  2013     1     1     6 LGA    ORD   N3ALAA  AA      Chica~  42.0 -87.9   668
## # ... with 336,766 more rows, and 3 more variables: tz <dbl>, dst <chr>,
## #   tzone <chr>
…
动词

summarise() 计算每个组的汇总，表示从group_keys开始右侧添加汇总变量

by_species %>%
  summarise(
    n = n(),
    height = mean(height, na.rm = TRUE)
  )
## # A tibble: 38 x 3
##    species       n height
##    <chr>     <int>  <dbl>
##  1 Aleena        1    79 
##  2 Besalisk      1   198 
##  3 Cerean        1   198 
##  4 Chagrian      1   196 
##  5 Clawdite      1   168 
##  6 Droid         6   131.
##  7 Dug           1   112 
##  8 Ewok          1    88 
##  9 Geonosian     1   183 
## 10 Gungan        3   209.
## # ... with 28 more rows
…
任意个表达式：

这种使用场景更多

my_summarise <- function(.data, ...) {
  .data %>%
    group_by(...) %>%
    summarise(mass = mean(mass, na.rm = TRUE), height = mean(height, na.rm = TRUE))
}
starwars %>% my_summarise(homeworld)
## # A tibble: 49 x 3
##    homeworld       mass height
##    <chr>          <dbl>  <dbl>
##  1 Alderaan        64     176.
##  2 Aleen Minor     15      79 
##  3 Bespin          79     175 
##  4 Bestine IV     110     180 
##  5 Cato Neimoidia  90     191 
##  6 Cerea           82     198 
##  7 Champala       NaN     196 
##  8 Chandrila      NaN     150 
##  9 Concord Dawn    79     183 
## 10 Corellia        78.5   175 
## # ... with 39 more rows
…
